<?xml version="1.0" encoding="UTF-8"?>
<svg viewBox="0 0 915.13654 875.2782" xmlns="http://www.w3.org/2000/svg" xmlns:xlink="http://www.w3.org/1999/xlink">
 <defs>
  <filter id="n">
   <feGaussianBlur stdDeviation="3.67842"/>
  </filter>
  <filter id="l">
   <feGaussianBlur stdDeviation="3.03456"/>
  </filter>
  <filter id="k">
   <feGaussianBlur stdDeviation="3.46657"/>
  </filter>
  <filter id="j">
   <feGaussianBlur stdDeviation=".87526"/>
  </filter>
  <filter id="i">
   <feGaussianBlur stdDeviation=".92397"/>
  </filter>
  <filter id="h">
   <feGaussianBlur stdDeviation="1.05005"/>
  </filter>
  <filter id="g">
   <feGaussianBlur stdDeviation="1.98815"/>
  </filter>
  <filter id="f">
   <feGaussianBlur stdDeviation="1.42298"/>
  </filter>
  <filter id="m" x="-.23006" y="-.3355" width="1.4601" height="1.671">
   <feGaussianBlur stdDeviation="3.38906"/>
  </filter>
  <linearGradient id="a">
   <stop stop-color="#154e73" offset="0"/>
   <stop stop-color="#154e73" stop-opacity="0" offset="1"/>
  </linearGradient>
  <radialGradient id="e" cx="281.85" cy="751.84" r="407.35" gradientTransform="matrix(1.8299 -1.0702 .89684 1.5335 -871.72 -69.019)" gradientUnits="userSpaceOnUse">
   <stop stop-color="#fff" offset="0"/>
   <stop stop-color="#50adcb" offset="1"/>
  </radialGradient>
  <radialGradient id="b" cx="430.13" cy="381.51" r="52.441" gradientTransform="matrix(2.2041 .8706 -.65053 1.647 -269.72 -621.29)" gradientUnits="userSpaceOnUse">
   <stop stop-color="#618ca8" offset="0"/>
   <stop stop-color="#618ca8" stop-opacity="0" offset="1"/>
  </radialGradient>
  <radialGradient id="d" cx="606.41" cy="297.48" r="98.987" gradientTransform="matrix(1 6.9731e-7 -5.3074e-7 .76113 -.00015714 71.06)" gradientUnits="userSpaceOnUse" xlink:href="#a"/>
  <radialGradient id="c" cx="366.06" cy="228.38" r="85.629" gradientTransform="matrix(.99416 .41708 -.30315 .72259 71.373 -89.321)" gradientUnits="userSpaceOnUse" xlink:href="#a"/>
 </defs>
 <g transform="translate(392.56 287.52)">
  <path transform="translate(-427.21 -351.28)" d="m454.57 100.23c111.14-27.883 451.04 105.02 414.16 440.43-41.583 342.92-292.16 354.34-341.43 361.63-432.22-13.619-465.82-338.63-462.65-375.78-7.4652-50.377 59.124-357.4 389.92-426.28z" fill="url(#e)" stroke="#154e73" stroke-linecap="round" stroke-linejoin="round" stroke-width="7.3"/>
  <path d="m327.37-75.286c49.42 47.095 54.878 114.08 53.538 179.81" fill="none" filter="url(#g)" stroke="#154e73" stroke-linecap="round" stroke-linejoin="round" stroke-width="6.8"/>
  <path transform="translate(-427.21 -351.28)" d="m326.28 140.63c-9.6641-22.231-35.176-33.42-59.599-34.345-10.525-7.1643-13.213 6.8917-10.275 14.438-4.5458 1.111-23.105-7.9067-9.9282 12.836-3.5585 0.0562-26.668-3.9013-7.0711 13.132-7.8371 2.9049-15.647 5.82-3.0304 16.162-7.8817 9.3283-7.3526 14.451 0 16.162-3.2004 5.9775-7.8011 12.655 0 13.132-7.2946 7.1828-2.7735 8.4578 1.0102 10.102 25.126-22.542 47.364-46.368 88.893-61.619z" fill="none" stroke="#154e73" stroke-linecap="round" stroke-linejoin="round" stroke-width="7.3"/>
  <path transform="translate(-427.21 -351.28)" d="m136.75 302.05c-12.99 2.0176-25.88 5.0013-38.683 7.9911-4.1453 0.56696-5.5655 5.3376-3.0801 8.6037 4.6643 11.134 8.1366 22.905 13.794 33.539 4.9924 3.3977 7.2391-3.5578 9.2857-6.8973 7.074-13.055 14.802-25.719 22.879-38.058 1.1935-2.7315-1.2829-5.7265-4.1964-5.1786z" fill="#618ca8" stroke="#154e73" stroke-linecap="round" stroke-linejoin="round" stroke-width="2.7143"/>
  <path d="m211.17-254.72c-15.478 4.919-31.302 8.9024-46.585 14.353-4.1283 1.5028-3.1007 7.4895 1.1161 8.1473 18.297 7.4566 36.639 14.974 54.263 24.04 3.8637 2.1819 6.9644-2.7723 5.0112-6.0962-3.2419-12.83-6.0793-25.871-9.7809-38.517-0.55489-1.6292-2.4925-2.18-4.025-1.927z" fill="#618ca8" stroke="#154e73" stroke-linecap="round" stroke-linejoin="round" stroke-width="2.7143"/>
  <g fill="none" filter="url(#h)" stroke="#154e73" stroke-linecap="round" stroke-linejoin="round" stroke-width="3.8">
   <path transform="translate(-427.21 -351.28)" d="m440.43 171.95-3.0305-28.284 37.376 27.274"/>
   <path transform="translate(-427.21 -351.28)" d="m544.47 188.11 33.335-8.0812 8.0812 22.223"/>
   <path transform="translate(-427.21 -351.28)" d="m657.61 202.25 45.457-2.0203v29.294"/>
   <path d="m46.987-138.89 36.365-17.173 6.0609 25.254"/>
   <path transform="translate(-427.21 -351.28)" d="m346.48 327.51-19.193-11.112 11.112 26.264"/>
   <path transform="translate(-427.21 -351.28)" d="m256.58 269.93-44.447 3.0305 28.284 36.365"/>
   <path transform="translate(-427.21 -351.28)" d="m215.16 341.65-40.406-4.0406 20.203 38.386"/>
   <path transform="translate(-427.21 -351.28)" d="m161.62 431.56-30.305 26.264 32.325 9.0914"/>
   <path transform="translate(-427.21 -351.28)" d="m291.93 382.06-28.284 11.112 31.315 12.122"/>
   <path transform="translate(-427.21 -351.28)" d="m348.5 417.42-17.173 17.173 26.264 11.112"/>
   <path transform="translate(-427.21 -351.28)" d="m289.91 462.87-49.497 9.0914 29.294 16.162"/>
   <path transform="translate(-427.21 -351.28)" d="m575.79 469.94 43.437 5.0508-21.213 22.223"/>
   <path transform="translate(-427.21 -351.28)" d="m683.87 408.32 34.345 14.142-20.203 17.173"/>
   <path transform="translate(-427.21 -351.28)" d="m804.08 467.92 25.254 28.284-23.234 15.152"/>
   <path transform="translate(-427.21 -351.28)" d="m751.55 511.36 29.294 20.203-19.193 12.122"/>
   <path transform="translate(-427.21 -351.28)" d="m597 577.02 31.315 16.162-24.244 12.122"/>
   <path transform="translate(-427.21 -351.28)" d="m492.95 464.89 28.284 20.203-28.284 4.0406"/>
   <path transform="translate(-427.21 -351.28)" d="m359.61 504.29 11.112 34.345 23.234-22.223"/>
   <path transform="translate(-427.21 -351.28)" d="m465.68 546.72 31.315 32.325-2.0203-39.396"/>
   <path transform="translate(-427.21 -351.28)" d="m146.47 533.58-16.162 41.416 38.386-11.112"/>
   <path transform="translate(-427.21 -351.28)" d="m248.5 542.68-13.132 33.335 36.365-16.162"/>
   <path transform="translate(-427.21 -351.28)" d="m351.53 624.5-3.0305 37.376 26.264-26.264"/>
   <path transform="translate(-427.21 -351.28)" d="m421.23 616.42 33.335 33.335 14.142-31.315"/>
   <path transform="translate(-427.21 -351.28)" d="m488.91 672.98 37.376 32.325-1.0102-34.345"/>
   <path transform="translate(-427.21 -351.28)" d="m546.49 626.52 35.355 26.264 10.102-20.203"/>
   <path transform="translate(-427.21 -351.28)" d="m751.55 613.39 6.0609 45.457-39.396-7.0711"/>
   <path transform="translate(-427.21 -351.28)" d="m796 584.09 36.365 30.305-32.325 22.223"/>
   <path transform="translate(-427.21 -351.28)" d="m759.63 706.32 22.223 27.274-39.396 21.213"/>
   <path transform="translate(-427.21 -351.28)" d="m684.88 704.3 18.183 26.264-39.396 6.0609"/>
   <path transform="translate(-427.21 -351.28)" d="m652.56 785.11 15.152 46.467-36.365-3.0304"/>
   <path transform="translate(-427.21 -351.28)" d="m590.94 795.21-34.345 46.467-17.173-26.264"/>
   <path transform="translate(-427.21 -351.28)" d="m458.61 796.22-39.396 33.335-17.173-38.386"/>
   <path transform="translate(-427.21 -351.28)" d="m388.91 704.3 30.305 41.416 8.0812-21.213"/>
   <path transform="translate(-427.21 -351.28)" d="m272.74 729.55-15.152 39.396h53.538"/>
   <path transform="translate(-427.21 -351.28)" d="m195.97 638.64-19.193 34.345 35.355-3.0304"/>
  </g>
  <path transform="translate(-427.21 -351.28)" d="m281.83 210.33c-7.4021 34.662 32.086 75.074 66.67 82.833 36.883 8.2746 95.148-12.329 102.03-49.497 6.7185-36.308-39.387-74.468-75.761-80.812-34.269-5.9768-85.669 13.458-92.934 47.477z" fill="url(#c)" filter="url(#l)"/>
  <path transform="translate(-427.21 -351.28)" d="m624.27 224.48c38.787 7.8296 87.534 49.076 79.802 87.883-8.7999 44.169-78.383 67.872-122.23 57.579-38.038-8.9304-81.757-53.909-72.731-91.924 9.7794-41.186 73.663-61.914 115.16-53.538z" fill="url(#d)" filter="url(#k)"/>
  <path transform="translate(-427.21 -351.28)" d="m346.48 210.33c8.7581-7.5264 31.451-2.7255 36.365 7.0711 7.5144 14.979-6.6967 34.688-22.223 30.305-15.519-4.3812-28.707-24.859-14.142-37.376z" fill="#154e73" filter="url(#i)"/>
  <path transform="matrix(1.062 0 0 1 -12.6 0)" d="m162.64-77.725c-9.504 9.0622 2.4482 33.041 15.152 36.366 9.5138 2.49 24.321-8.4089 23.234-18.183-1.566-14.071-28.139-27.953-38.386-18.183z" fill="#154e73" filter="url(#j)"/>
  <path transform="translate(-427.21 -351.28)" d="m261.1 103.92c-7.1606 1.138-7.2171 10.257-5.8482 15.848-4.6039 0.19773-11.13-3.1438-13.705 2.5223-1.2617 3.6461 2.6096 7.5125 2.8795 10.201-4.2119-0.31553-11.335-1.4756-12.277 4.3495-0.9306 4.1244 3.6698 6.8272 5.2906 9.6237-4.2282 1.4609-10.571 5.1746-7.4554 10.446 0.98747 2.438 4.1925 4.2139 4.6875 6.4286-2.8617 4.07-7.4634 10.446-2.4554 14.754 0.82479 1.1156 3.9104 0.75944 2.1304 2.6113-1.9658 3.5095-4.9103 9.3274 0.17623 11.627 2.0287 0.96956 1.5586 4.6918 4.3812 5.0101 5.3214 2.0342 8.8616-4.5028 12.942-7.0792 20.449-18.4 42.267-36.072 68.16-46.12 4.3149-1.0677 7.3766-6.2254 4.0179-9.9107-7.8227-12.786-21.513-20.616-35.446-25.089-6.9798-2.3361-14.318-2.9336-21.518-3.9286-1.9442-0.58609-3.8584-1.5632-5.9598-1.2946z" fill="#618ca8" stroke="#154e73" stroke-linecap="round" stroke-linejoin="round" stroke-width="2.7143"/>
  <path transform="translate(-427.21 -351.28)" d="m70.928 438.43c-10.342 0.97435-20.737 2.3893-31.049 3.9286-5.1192 1.8844-1.599 7.2587 0.2836 10.221 6.7619 11.394 12.695 23.368 20.185 34.288 2.9547 3.2673 7.4268-0.27534 7.2991-3.9509 2.4414-13.654 6.1762-27.113 9.5759-40.58-0.0011-3.2739-3.5884-4.398-6.2946-3.9062z" fill="#618ca8" stroke="#154e73" stroke-linecap="round" stroke-linejoin="round" stroke-width="2.7143"/>
  <path transform="translate(-427.21 -351.28)" d="m66.486 579.95c-4.9219 0.64245-4.6271 7.5426-6.6964 11.116-3.3559 10.389-7.4039 20.563-9.7545 31.228 1.2923 4.9186 7.7794 5.5197 11.435 8.28 6.9122 3.2959 13.478 7.77 20.663 10.274 4.5599 0.8005 4.742-5.0626 3.0809-7.8841-6.0003-16.141-10.041-32.861-14.732-49.397-0.48182-1.8879-1.9186-3.6174-3.9955-3.6161z" fill="#618ca8" stroke="#154e73" stroke-linecap="round" stroke-linejoin="round" stroke-width="2.7143"/>
  <path transform="translate(-427.21 -351.28)" d="m377.06 79.949c-5.1714 1.9887-2.5189 8.9851-2.751 13.344 0.88266 8.157 0.76473 16.535 2.126 24.58 3.3906 4.7855 9.6231 0.2702 13.916-0.46589 5.9918-2.2415 12.532-3.5095 18.048-6.7662 3.1922-4.9492-3.7643-7.8266-6.3839-11.004-7.7069-6.5078-14.72-14.081-23.103-19.665-0.61157-0.15571-1.2377-0.12226-1.8527-0.02232z" fill="#618ca8" stroke="#154e73" stroke-linecap="round" stroke-linejoin="round" stroke-width="2.7143"/>
  <path transform="translate(-427.21 -351.28)" d="m519.88 67.36c-11.771 7.4335-24.224 14.539-35.603 22.768-2.9889 3.9672 1.5638 7.0821 5.4911 6.5402 14.762 0.02954 29.394 1.7622 43.906 4.3304 4.4645-0.16716 4.4204-5.7021 2.3661-8.4821-3.9489-8.1615-7.1826-16.845-12.344-24.33-1.1157-1.1775-2.3668-0.85161-3.817-0.82589z" fill="#618ca8" stroke="#154e73" stroke-linecap="round" stroke-linejoin="round" stroke-width="2.7143"/>
  <path transform="translate(-427.21 -351.28)" d="m772.52 175.17c-15.312 2.5144-30.654 5.2497-45.737 8.8393-4.6392 3.0678 0.0252 8.092 3.1267 10.099 11.73 9.5912 22.552 20.207 33.838 30.191 3.0338 2.6136 7.2591-0.5583 6.7634-4.1518 1.9558-13.839 4.4847-27.611 6.0491-41.496-0.28371-2.0492-1.9119-3.6933-4.0402-3.4821z" fill="#618ca8" stroke="#154e73" stroke-linecap="round" stroke-linejoin="round" stroke-width="2.7143"/>
  <path transform="translate(-427.21 -351.28)" d="m873.72 494.15c-3.183 4.6192-1.5636 10.93-2.4983 16.226-0.38885 10.406-1.7886 20.818-2.1 31.184 1.436 4.8029 7.0746 2.6388 9.6195 0.23996 7.6434-5.3589 16.006-10.055 22.979-16.153 2.0328-4.4975-4.0576-7.62-5.9694-11.23-5.8276-6.888-11.194-14.297-17.768-20.469-1.41-1.0236-2.8323-0.42835-4.2634 0.20089z" fill="#618ca8" stroke="#154e73" stroke-linecap="round" stroke-linejoin="round" stroke-width="2.7143"/>
  <path transform="translate(-427.21 -351.28)" d="m855.64 622.47c-3.9924 3.708-4.0675 9.9602-6.0741 14.814-2.113 8.2907-5.5045 16.215-7.3411 24.561 0.78653 5.2626 6.4718 3.0556 9.5598 1.4482 5.7123-2.8462 12.477-4.1772 17.471-8.1669 1.553-5.3804-2.0716-10.747-3.1714-15.955-2.253-5.4551-2.993-11.919-6.8955-16.456-0.97123-0.48242-2.5288-0.68476-3.5491-0.24553z" fill="#618ca8" stroke="#154e73" stroke-linecap="round" stroke-linejoin="round" stroke-width="2.7143"/>
  <path transform="translate(-427.21 -351.28)" d="m821.63 714.53c-5.1435 2.1762-5.9267 8.8678-9.0972 12.984-5.365 10.163-12.017 19.584-17.733 29.538-0.68953 5.2411 5.4317 4.9222 8.9286 4.5759 11.191-0.99979 22.594-0.42847 33.661-2.1205 5.3255-2.0457 1.3836-8.1663 0.29246-11.765-4.2232-10.727-7.5584-21.962-12.748-32.23-0.85915-0.83996-2.1334-1.1636-3.3036-0.98214z" fill="#618ca8" stroke="#154e73" stroke-linecap="round" stroke-linejoin="round" stroke-width="2.7143"/>
  <path transform="translate(-427.21 -351.28)" d="m755.38 805.55c-6.9312 3.5807-11.624 10.295-17.86 14.934-7.473 7.0631-16.571 12.278-23.77 19.62-1.9974 3.4833 2.5443 6.9421 6.0938 5.9375 11.719-0.89501 23.467-1.7041 35.134-3.0804 4.8182-2.3438 2.55-8.8595 3.603-13.366 0.25624-6.9223 1.3557-13.852 1.464-20.741-0.35642-2.148-2.507-3.7052-4.6652-3.3036z" fill="#618ca8" stroke="#154e73" stroke-linecap="round" stroke-linejoin="round" stroke-width="2.7143"/>
  <path transform="translate(-427.21 -351.28)" d="m591.83 892.11c-17.864 3.6548-35.866 6.5315-53.884 9.2857-3.9545 0.046-6.1272 5.4537-2.3661 7.6116 11.931 9.3827 23.985 19.001 36.763 27.299 5.4341 1.0688 6.3249-6.126 8.8302-9.3634 5.1887-10.196 10.96-20.118 15.366-30.659 0.38683-2.6348-2.175-4.7743-4.7098-4.1741z" fill="#618ca8" stroke="#154e73" stroke-linecap="round" stroke-linejoin="round" stroke-width="2.7143"/>
  <path transform="translate(-427.21 -351.28)" d="m350.23 875.53c-4.1728 0.16102-4.5014 5.6351-1.5625 7.7232 9.9105 12.537 19.702 25.221 30.357 37.098 4.8917 2.3882 7.673-3.959 11.066-6.306 6.4223-6.5925 13.369-12.781 19.18-19.899 1.6577-4.4661-3.7901-5.5002-6.9643-5.8259-17.185-3.5972-34.109-8.4937-51.138-12.79l-0.29018-0.0223-0.64732 0.0223z" fill="#618ca8" stroke="#154e73" stroke-linecap="round" stroke-linejoin="round" stroke-width="2.7143"/>
  <path transform="translate(-427.21 -351.28)" d="m148.13 749.9c-2.803 4.2829-0.37904 9.8715-0.88534 14.687 0.61436 8.3449 0.23708 16.886 1.5996 25.112 3.1882 4.0718 9.0753 1.1699 13.413 1.5743 7.0028-0.64584 14.051-1.0348 21.029-1.8199 4.7439-2.3955 1.045-7.1741-1.5553-9.5656-9.6948-9.9729-19.317-19.969-28.98-29.943-1.4313-1.2351-3.0872-0.84743-4.6205-0.0446z" fill="#618ca8" stroke="#154e73" stroke-linecap="round" stroke-linejoin="round" stroke-width="2.7143"/>
  <path d="m443-66.966c-27.99 0.28139-53.654 12.965-77.634 26.138-4.4383 1.9331-2.5862 7.0279-0.82589 10.223 11.972 31.198 16.637 64.658 19.665 97.902 1.1006 8.0867 1.015 16.41 2.9911 24.33 2.6726 5.0253 8.839 0.057 12.852-1.1462 25.848-10.627 53.183-22.778 81.835-18.474 6.4422 0.49663 12.585 3.4936 18.996 3.2589 4.9548-3.2216 12.469-4.5162 14.933-10.469 0.31861-5.4576-6.6139-5.6826-10.424-6.942-2.9346-0.8001-6.3288-0.92222-9.0179-1.9866 3.8575-2.1177 11.194-3.3395 10.246-9.2857-1.5122-4.962-8.1684-5.9668-11.094-8.9732 3.9292-2.0775 10.841-4.6968 8.7054-10.424-1.6832-4.3757-6.7253-7.2192-8.6161-10.893 3.5135-3.3968 10.231-6.2009 9.375-12.031-2.2489-5.7189-8.7091-8.1559-12.723-12.098 0.63756-5.3638 6.8672-8.8303 6.2723-14.353-2.3666-4.932-9.724-2.6479-13.125-5.0446 1.5692-4.4318 6.8225-8.0895 5.4241-13.17-3.3557-4.1685-9.575-1.8123-14.196-2.8125 5.9008-2.7437 13.786-3.8422 17.411-9.8661 1.7404-5.8869-5.5329-8.2884-9.933-9.2188-13.454-3.0873-27.289-4.9234-41.116-4.6652z" fill="#618ca8" stroke="#154e73" stroke-linecap="round" stroke-linejoin="round" stroke-width="1.9388"/>
  <path d="m362.88-38.344c38.403-20.297 67.437-36.006 119.2-24.244 12.693-0.13909 28.145 11.698-4.0406 20.203 18.183-0.67344 20.54 0.67344 9.0914 16.162 27.354 2.5055 9.0246 9.3606 7.0711 19.193 18.334 11.18 17.004 15.756 3.0305 24.244 7.1717 5.7242 18.519 15.489 0 21.213 16.672 7.4222 16.662 13.454 1.0102 18.183 28.462 3.8447 25.692 10.977 3.0305 20.203-42.992-13.859-76.864 5.7238-112.13 20.203v1.0102c-4.9636-45.457-5.9988-90.914-26.264-136.37z" fill="none" stroke="#154e73" stroke-linecap="round" stroke-linejoin="round" stroke-width="7.3"/>
  <g transform="translate(.71429,-.71429)" stroke="#154e73" stroke-linecap="round" stroke-linejoin="round">
   <g fill="none" stroke-width="4.7">
    <path d="m-50.009-233.63-3.0305-41.416 37.376 33.335"/>
    <path d="m50.098-256.18 45.457-28.284 17.173 36.365"/>
    <path d="m156.24-237.68 60.609-18.183 12.122 48.487"/>
    <path d="m294.48-165.78 54.548-10.102-8.0812 52.528"/>
    <path d="m-286.21-49.44-47.477 10.102 16.162 41.416"/>
    <path d="m-351.52 87.42-39.396 5.0508 27.274 47.477"/>
    <path d="m444.43 137.89c5.8034 3.0263 30.736 35.315 30.736 35.315l-32.499 22.193"/>
    <path d="m429.67 263.88 13.132 39.396-29.294 12.122"/>
    <path d="m396.41 362.11 17.173 45.457-46.467 2.0203"/>
    <path d="m-361.73 224.73-15.152 47.477 36.365 19.193"/>
    <path transform="translate(-427.21 -351.28)" d="m147.48 747.74 2.0203 43.437 38.386-3.0305"/>
    <path d="m-84.773 522.83 38.386 47.477 28.284-28.284"/>
    <path d="m103.12 552.78 44.447 33.335 23.234-45.457"/>
    <path d="m279.82 494.79 49.497-4.0406 3.0305-39.396"/>
   </g>
   <g filter="url(#n)" opacity=".88333" stroke-width="2.9">
    <g transform="translate(146)" fill="none" stroke="#154e73" stroke-linecap="round" stroke-linejoin="round" stroke-width="2.9">
     <path d="m225.84-6.5956c28.59-31.72 66.468-37.085 100.01-36.365"/>
     <path d="m230.89 13.608c29.833-29.638 69.656-38.901 107.08-31.315"/>
     <path d="m236.95 45.932c29.285-30.565 66.928-30.48 104.05-32.325"/>
     <path d="m237.96 66.135c17.45-9.9666 17.565-35.287 95.964-23.234"/>
     <path d="m220.79-27.809c25.382-21.46 61.43-34.118 100.01-34.345"/>
    </g>
   </g>
  </g>
  <path d="m-154.35-231.27c12.927 7.2246 32.09 9.7729 35.355 24.244m-60.609-19.193c13.98 9.7992 35.983 9.569 40.406 31.315m-48.487-3.0305c8.6218 6.0698 15.254 2.19 26.264 20.203l2.0203 1.0102" fill="none" filter="url(#m)" stroke="#154e73" stroke-linecap="round" stroke-linejoin="round" stroke-width="3.4"/>
  <path transform="translate(-427.21 -351.28)" d="m412.08 420.16c-22.721-6.4126-54.442-65.072-55.823-87.142 2.4479 14.171 30.377 33.771 58.349 11.154 25.829 0.37259 40.661 6.0017 51.069 28.634 8.8915 8.5586 32.263 17.214 51.893 11.101-17.911 13.511-82.89 47.725-105.49 36.253zm54.383-15.533c4.3443-1.8152 6.6656-5.1943 6.6656-9.7032 0-5.3605-1.2803-8.4384-9.8425-6.6526-4.862-4.3421-5.4322-5.7236-9.2781-12.54-5.129 2.1634-12.235 5.7594-18.497 7.286-2.5173-5.7713-4.0441-13.061-6.9798-18.892-5.8516 3.0291-7.899 4.3662-17.565 8.6602-1.4686-3.6348-2.1758-8.4776-2.5475-13.759-8.7918 3.2097-16.356 9.8198-20.635 16.87-0.31568 1.2981 7e-3 4.3004 0.71647 6.6718l1.2904 4.3117 15.982-9.9212 8.1006 16.936c4.1129-1.5734 5.9297-4.388 12.034-7.6532 7.1367 6.9042 7.8568 7.6852 11.572 11.794 5.5829-0.40449 5.8767-0.54073 8.4044-1.6121 6.214-2.6339 3.9292-1.6589 7.4249-3.4846 3.7527 4.6119 4.571 5.9144 8.2905 10.327 2.253 3.49 1.8394 2.9385 4.8632 1.3608v-3e-5z" fill="url(#b)" filter="url(#f)"/>
 </g>
</svg>
